#
#                              ======================
#                              | THE SUSYHIT OUTPUT |
#                              ======================
#
#
#              ------------------------------------------------------
#              |     This is the output of the SUSY-HIT package     |
#              |  created by A.Djouadi, M.Muehlleitner and M.Spira. |
#              |  In case of problems with SUSY-HIT email to        |
#              |           margarete.muehlleitner@cern.ch           |
#              |           michael.spira@psi.ch                     |
#              |           abdelhak.djouadi@cern.ch                 |
#              ------------------------------------------------------
#
#              ------------------------------------------------------
#              |  SUSY Les Houches Accord - MSSM Spectrum + Decays  |
#              |              based on the decay programs           |
#              |                                                    |
#              |                     SDECAY 1.2                     |
#              |                                                    |
#              |  Authors: M.Muhlleitner, A.Djouadi and Y.Mambrini  |
#              |  Ref.:    Comput.Phys.Commun.168(2005)46           |
#              |           [hep-ph/0311167]                         |
#              |                                                    |
#              |                     HDECAY 3.302                   |
#              |                                                    |
#              |  By: A.Djouadi,J.Kalinowski,M.Muhlleitner,M.Spira  |
#              |  Ref.:    Comput.Phys.Commun.108(1998)56           |
#              |           [hep-ph/9704448]                         |
#              |                                                    |
#              |                                                    |
#              |  If not stated otherwise all DRbar couplings and   |
#              |  soft SUSY breaking masses are given at the scale  |
#              |  Q=  0.29052880E+03
#              |                                                    |
#              ------------------------------------------------------
#
#
#
BLOCK SPINFO  # Spectrum calculator information
     1   MRENNA    # spectrum calculator
     2   1.0.1         # version number
#
BLOCK MODSEL  # Model selection
     1     1   #
#
BLOCK MINPAR  # Input parameters - minimal models
         1     2.00000000E+02   # m0
         2     1.60000000E+02   # m12
         3     1.00000000E+01   # tanb
         4     1.00000000E+00   # sign(mu)
         5    -4.00000000E+02   # A0
#
BLOCK MASS  # Mass Spectrum
# PDG code           mass       particle
        25     1.00000000E+05
        35     1.00000000E+05
        36     1.00000000E+05
        37     1.00000000E+05
   1000001     600.   #    ~d_L
   2000001     600.   #    ~d_R
   1000002     600.   #    ~u_L
   2000002     600.   #    ~u_R
   1000003     600.   #    ~s_L
   2000003     600.   #    ~s_R
   1000004     600.   #    ~c_L
   2000004     600.   #    ~c_R
   1000005     1.00000000E+05   # ~b_1
   2000005     1.10000000E+05   # ~b_2
   1000006     1.00000000E+05   # ~t_1
   2000006     1.10000000E+05   # ~t_2
   1000011     1.00000000E+05   # ~e_L
   2000011     1.00000000E+05   # ~e_R
   1000012     1.00000000E+05   # ~nu_eL
   1000013     1.00000000E+05   # ~mu_L
   2000013     1.00000000E+05   # ~mu_R
   1000014     1.00000000E+05   # ~nu_muL
   1000015     1.00000000E+05   # ~tau_1
   2000015     1.00000000E+05   # ~tau_2
   1000016     1.00000000E+05   # ~nu_tauL
   1000021     600.    #    ~g
   1000022     100.    #    ~chi_10
   1000023     1.00000000E+05   # ~chi_20
   1000025     1.00000000E+05   # ~chi_30
   1000035     1.00000000E+05   # ~chi_40
   1000024     1.00000000E+05   # ~chi_1+
   1000037     1.00000000E+05   # ~chi_2+
#
BLOCK NMIX  # Neutralino Mixing Matrix
  1  1     9.79183656E-01   # N_11
  1  2    -8.70017948E-02   # N_12
  1  3     1.75813037E-01   # N_13
  1  4    -5.21520034E-02   # N_14
  2  1     1.39174513E-01   # N_21
  2  2     9.44472080E-01   # N_22
  2  3    -2.71658234E-01   # N_23
  2  4     1.21674770E-01   # N_24
  3  1    -7.50233573E-02   # N_31
  3  2     1.16844446E-01   # N_32
  3  3     6.87186106E-01   # N_33
  3  4     7.13087741E-01   # N_34
  4  1    -1.27284400E-01   # N_41
  4  2     2.94534470E-01   # N_42
  4  3     6.50435881E-01   # N_43
  4  4    -6.88462993E-01   # N_44
#
BLOCK UMIX  # Chargino Mixing Matrix U
  1  1     9.15480281E-01   # U_11
  1  2    -4.02362840E-01   # U_12
  2  1     4.02362840E-01   # U_21
  2  2     9.15480281E-01   # U_22
#
BLOCK VMIX  # Chargino Mixing Matrix V
  1  1     9.82636204E-01   # V_11
  1  2    -1.85542692E-01   # V_12
  2  1     1.85542692E-01   # V_21
  2  2     9.82636204E-01   # V_22
#
BLOCK STOPMIX  # Stop Mixing Matrix
  1  1     5.78881371E-01   # cos(theta_t)
  1  2     8.15411772E-01   # sin(theta_t)
  2  1    -8.15411772E-01   # -sin(theta_t)
  2  2     5.78881371E-01   # cos(theta_t)
#
BLOCK SBOTMIX  # Sbottom Mixing Matrix
  1  1     9.66726392E-01   # cos(theta_b)
  1  2     2.55812594E-01   # sin(theta_b)
  2  1    -2.55812594E-01   # -sin(theta_b)
  2  2     9.66726392E-01   # cos(theta_b)
#
BLOCK STAUMIX  # Stau Mixing Matrix
  1  1     4.51419848E-01   # cos(theta_tau)
  1  2     8.92311672E-01   # sin(theta_tau)
  2  1    -8.92311672E-01   # -sin(theta_tau)
  2  2     4.51419848E-01   # cos(theta_tau)
#
BLOCK ALPHA  # Higgs mixing
          -1.13676047E-01   # Mixing angle in the neutral Higgs boson sector
#
BLOCK HMIX Q=  2.90528802E+02  # DRbar Higgs Parameters
         1     3.05599351E+02   # mu(Q)MSSM
#
BLOCK AU Q=  2.90528802E+02  # The trilinear couplings
  1  1     0.00000000E+00   # A_u(Q) DRbar
  2  2     0.00000000E+00   # A_c(Q) DRbar
  3  3    -4.46245994E+02   # A_t(Q) DRbar
#
BLOCK AD Q=  2.90528802E+02  # The trilinear couplings
  1  1     0.00000000E+00   # A_d(Q) DRbar
  2  2     0.00000000E+00   # A_s(Q) DRbar
  3  3    -8.28806503E+02   # A_b(Q) DRbar
#
BLOCK AE Q=  2.90528802E+02  # The trilinear couplings
  1  1     0.00000000E+00   # A_e(Q) DRbar
  2  2     0.00000000E+00   # A_mu(Q) DRbar
  3  3    -4.92306701E+02   # A_tau(Q) DRbar
#
BLOCK MSOFT Q=  2.90528802E+02  # The soft SUSY breaking masses at the scale Q
         1     6.39136864E+01   # M_1(Q)
         2     1.22006983E+02   # M_2(Q)
         3     3.90619532E+02   # M_3(Q)
        21     4.42860395E+04   # mH1^2(Q)
        22    -9.76585434E+04   # mH2^2(Q)
        31     2.26648170E+02   # meL(Q)
        32     2.26648170E+02   # mmuL(Q)
        33     2.24355944E+02   # mtauL(Q)
        34     2.08394096E+02   # meR(Q)
        35     2.08394096E+02   # mmuR(Q)
        36     2.03337218E+02   # mtauR(Q)
        41     4.08594291E+02   # mqL1(Q)
        42     4.08594291E+02   # mqL2(Q)
        43     3.46134575E+02   # mqL3(Q)
        44     3.98943379E+02   # muR(Q)
        45     3.98943379E+02   # mcR(Q)
        46     2.58021672E+02   # mtR(Q)
        47     3.95211849E+02   # mdR(Q)
        48     3.95211849E+02   # msR(Q)
        49     3.90320031E+02   # mbR(Q)
#
#
#
#                             =================
#                             |The decay table|
#                             =================
#
# - The QCD corrections to the decays gluino -> squark  + quark
#                                     squark -> gaugino + quark_prime
#                                     squark -> squark_prime + Higgs
#                                     squark -> gluino  + quark
#   are included.
#
# - The multi-body decays for the inos, stops and sbottoms are included.
#
# - The loop induced decays for the gluino, neutralinos and stops
#   are included.
#
# - The SUSY decays of the top quark are included.

#         PDG            Width
DECAY   1000021     1.00000000E+00   # ~g + decays
#           BR         NDA      ID1       ID2       ID3
      2.50000000e-01   3    1000022   -1    1
      2.50000000e-01   3    1000022   -2    2
      2.50000000e-01   3    1000022   -3    3
      2.50000000e-01   3    1000022   -4    4

#         PDG            Width
DECAY   1000001     1.00000000E+00   # sdown_L decays
#          BR         NDA      ID1       ID2
     1.00000000E+00    2     1000022         1   # BR(~d_L -> ~chi_10 d)
#         PDG            Width
DECAY   1000002     1.00000000E+00   # sup_L decays
#          BR         NDA      ID1       ID2
     1.00000000E+00    2     1000022         2   # BR(~u_L -> ~chi_10 d)
#         PDG            Width
DECAY   1000003     1.00000000E+00   # sstrange_L decays
#          BR         NDA      ID1       ID2
     1.00000000E+00    2     1000022         3   # BR(~s_L -> ~chi_10 s)
#         PDG            Width
DECAY   1000004     1.00000000E+00   # scharm_L decays
#          BR         NDA      ID1       ID2
     1.00000000E+00    2     1000022         4   # BR(~c_L -> ~chi_10 c)
#         PDG            Width
DECAY   2000001     1.00000000E+00   # sdown_L decays
#          BR         NDA      ID1       ID2
     1.00000000E+00    2     1000022         1   # BR(~d_R -> ~chi_10 d)
#         PDG            Width
DECAY   2000002     1.00000000E+00   # sup_L decays
#          BR         NDA      ID1       ID2
     1.00000000E+00    2     1000022         2   # BR(~u_R -> ~chi_10 d)
#         PDG            Width
DECAY   2000003     1.00000000E+00   # sstrange_L decays
#          BR         NDA      ID1       ID2
     1.00000000E+00    2     1000022         3   # BR(~s_R -> ~chi_10 s)
#         PDG            Width
DECAY   2000004     1.00000000E+00   # scharm_L decays
#          BR         NDA      ID1       ID2
     1.00000000E+00    2     1000022         4   # BR(~c_R -> ~chi_10 c)

XSECTION  8.00E+03  2212 2212 2 1000001 1000003   # Nevts: 10000 xsec unit: pb
  0  2  0  0  0  0    1.16496554E-02 SModelS 1.0.90

XSECTION  8.00E+03  2212 2212 2 -1000002 2000002   # Nevts: 10000 xsec unit: pb
  0  2  0  0  0  0    3.46245467E-02 SModelS 1.0.90

XSECTION  8.00E+03  2212 2212 2 1000003 1000021   # Nevts: 10000 xsec unit: pb
  0  2  0  0  0  0    2.88420835E-02 SModelS 1.0.90

XSECTION  8.00E+03  2212 2212 2 -2000004 2000002   # Nevts: 10000 xsec unit: pb
  0  2  0  0  0  0    7.32442334E-03 SModelS 1.0.90

XSECTION  8.00E+03  2212 2212 2 1000002 2000003   # Nevts: 10000 xsec unit: pb
  0  2  0  0  0  0    7.21169142E-03 SModelS 1.0.90

XSECTION  8.00E+03  2212 2212 2 -1000003 1000003   # Nevts: 10000 xsec unit: pb
  0  2  0  0  0  0    1.73122734E-02 SModelS 1.0.90

XSECTION  8.00E+03  2212 2212 2 -2000004 1000001   # Nevts: 10000 xsec unit: pb
  0  2  0  0  0  0    4.66099667E-03 SModelS 1.0.90

XSECTION  8.00E+03  2212 2212 2 1000002 1000002   # Nevts: 10000 xsec unit: pb
  0  2  0  0  0  0    1.83066013E-01 SModelS 1.0.90

XSECTION  8.00E+03  2212 2212 2 -2000003 2000002   # Nevts: 10000 xsec unit: pb
  0  2  0  0  0  0    7.99028001E-03 SModelS 1.0.90

XSECTION  8.00E+03  2212 2212 2 1000002 2000004   # Nevts: 10000 xsec unit: pb
  0  2  0  0  0  0    3.32847297E-03 SModelS 1.0.90

XSECTION  8.00E+03  2212 2212 2 1000021 2000002   # Nevts: 10000 xsec unit: pb
  0  2  0  0  0  0    1.13008527E+00 SModelS 1.0.90

XSECTION  8.00E+03  2212 2212 2 1000001 1000004   # Nevts: 10000 xsec unit: pb
  0  2  0  0  0  0    3.32847297E-03 SModelS 1.0.90

XSECTION  8.00E+03  2212 2212 2 -1000004 1000021   # Nevts: 10000 xsec unit: pb
  0  2  0  0  0  0    1.44210418E-02 SModelS 1.0.90

XSECTION  8.00E+03  2212 2212 2 -2000001 2000003   # Nevts: 10000 xsec unit: pb
  0  2  0  0  0  0    6.65856668E-04 SModelS 1.0.90

XSECTION  8.00E+03  2212 2212 2 -2000001 2000002   # Nevts: 10000 xsec unit: pb
  0  2  0  0  0  0    2.13074134E-02 SModelS 1.0.90

XSECTION  8.00E+03  2212 2212 2 -2000003 1000003   # Nevts: 10000 xsec unit: pb
  0  2  0  0  0  0    1.33171334E-03 SModelS 1.0.90

XSECTION  8.00E+03  2212 2212 2 2000001 2000001   # Nevts: 10000 xsec unit: pb
  0  2  0  0  0  0    3.55037116E-02 SModelS 1.0.90

XSECTION  8.00E+03  2212 2212 2 -2000002 1000001   # Nevts: 10000 xsec unit: pb
  0  2  0  0  0  0    1.46488467E-02 SModelS 1.0.90

XSECTION  8.00E+03  2212 2212 2 -2000004 2000004   # Nevts: 10000 xsec unit: pb
  0  2  0  0  0  0    1.66464167E-02 SModelS 1.0.90

XSECTION  8.00E+03  2212 2212 2 -1000003 2000003   # Nevts: 10000 xsec unit: pb
  0  2  0  0  0  0    1.99757000E-03 SModelS 1.0.90

XSECTION  8.00E+03  2212 2212 2 1000004 2000001   # Nevts: 10000 xsec unit: pb
  0  2  0  0  0  0    2.21898198E-03 SModelS 1.0.90

XSECTION  8.00E+03  2212 2212 2 1000003 1000004   # Nevts: 10000 xsec unit: pb
  0  2  0  0  0  0    1.10949099E-03 SModelS 1.0.90

XSECTION  8.00E+03  2212 2212 2 -2000001 2000001   # Nevts: 10000 xsec unit: pb
  0  2  0  0  0  0    2.79659800E-02 SModelS 1.0.90

XSECTION  8.00E+03  2212 2212 2 -2000002 1000002   # Nevts: 10000 xsec unit: pb
  0  2  0  0  0  0    3.52904034E-02 SModelS 1.0.90

XSECTION  8.00E+03  2212 2212 2 -1000001 2000002   # Nevts: 10000 xsec unit: pb
  0  2  0  0  0  0    5.72636734E-02 SModelS 1.0.90

XSECTION  8.00E+03  2212 2212 2 1000001 1000002   # Nevts: 10000 xsec unit: pb
  0  2  0  0  0  0    2.12467524E-01 SModelS 1.0.90

XSECTION  8.00E+03  2212 2212 2 -2000002 2000001   # Nevts: 10000 xsec unit: pb
  0  2  0  0  0  0    1.99757000E-03 SModelS 1.0.90

XSECTION  8.00E+03  2212 2212 2 1000003 1000003   # Nevts: 10000 xsec unit: pb
  0  2  0  0  0  0    1.10949099E-03 SModelS 1.0.90

XSECTION  8.00E+03  2212 2212 2 -1000002 2000003   # Nevts: 10000 xsec unit: pb
  0  2  0  0  0  0    2.66342667E-03 SModelS 1.0.90

XSECTION  8.00E+03  2212 2212 2 -1000003 1000021   # Nevts: 10000 xsec unit: pb
  0  2  0  0  0  0    3.60526044E-02 SModelS 1.0.90

XSECTION  8.00E+03  2212 2212 2 -1000004 2000001   # Nevts: 10000 xsec unit: pb
  0  2  0  0  0  0    3.99514001E-03 SModelS 1.0.90

XSECTION  8.00E+03  2212 2212 2 2000002 2000002   # Nevts: 10000 xsec unit: pb
  0  2  0  0  0  0    2.15241252E-01 SModelS 1.0.90

XSECTION  8.00E+03  2212 2212 2 -1000001 1000003   # Nevts: 10000 xsec unit: pb
  0  2  0  0  0  0    6.65856668E-04 SModelS 1.0.90

XSECTION  8.00E+03  2212 2212 2 -1000001 2000001   # Nevts: 10000 xsec unit: pb
  0  2  0  0  0  0    2.39708400E-02 SModelS 1.0.90

XSECTION  8.00E+03  2212 2212 2 1000001 2000003   # Nevts: 10000 xsec unit: pb
  0  2  0  0  0  0    1.10949099E-03 SModelS 1.0.90

XSECTION  8.00E+03  2212 2212 2 -2000002 2000002   # Nevts: 10000 xsec unit: pb
  0  2  0  0  0  0    3.92855434E-02 SModelS 1.0.90

XSECTION  8.00E+03  2212 2212 2 -2000004 1000002   # Nevts: 10000 xsec unit: pb
  0  2  0  0  0  0    1.46488467E-02 SModelS 1.0.90

XSECTION  8.00E+03  2212 2212 2 1000002 1000003   # Nevts: 10000 xsec unit: pb
  0  2  0  0  0  0    3.16204932E-02 SModelS 1.0.90

XSECTION  8.00E+03  2212 2212 2 -2000003 1000002   # Nevts: 10000 xsec unit: pb
  0  2  0  0  0  0    2.13074134E-02 SModelS 1.0.90

XSECTION  8.00E+03  2212 2212 2 1000021 2000001   # Nevts: 10000 xsec unit: pb
  0  2  0  0  0  0    4.03133668E-01 SModelS 1.0.90

XSECTION  8.00E+03  2212 2212 2 -2000003 1000021   # Nevts: 10000 xsec unit: pb
  0  2  0  0  0  0    2.68755778E-02 SModelS 1.0.90

XSECTION  8.00E+03  2212 2212 2 -1000003 1000002   # Nevts: 10000 xsec unit: pb
  0  2  0  0  0  0    1.06537067E-02 SModelS 1.0.90

XSECTION  8.00E+03  2212 2212 2 -1000004 1000001   # Nevts: 10000 xsec unit: pb
  0  2  0  0  0  0    1.33171334E-03 SModelS 1.0.90

XSECTION  8.00E+03  2212 2212 2 -2000001 1000003   # Nevts: 10000 xsec unit: pb
  0  2  0  0  0  0    1.33171334E-03 SModelS 1.0.90

XSECTION  8.00E+03  2212 2212 2 1000002 1000004   # Nevts: 10000 xsec unit: pb
  0  2  0  0  0  0    1.05401644E-02 SModelS 1.0.90

XSECTION  8.00E+03  2212 2212 2 1000003 2000002   # Nevts: 10000 xsec unit: pb
  0  2  0  0  0  0    6.10220044E-03 SModelS 1.0.90

XSECTION  8.00E+03  2212 2212 2 2000001 2000003   # Nevts: 10000 xsec unit: pb
  0  2  0  0  0  0    7.76643692E-03 SModelS 1.0.90

XSECTION  8.00E+03  2212 2212 2 -2000002 1000021   # Nevts: 10000 xsec unit: pb
  0  2  0  0  0  0    4.91626424E-02 SModelS 1.0.90

XSECTION  8.00E+03  2212 2212 2 1000001 2000004   # Nevts: 10000 xsec unit: pb
  0  2  0  0  0  0    5.54745494E-04 SModelS 1.0.90

XSECTION  8.00E+03  2212 2212 2 1000021 2000004   # Nevts: 10000 xsec unit: pb
  0  2  0  0  0  0    9.17702658E-03 SModelS 1.0.90

XSECTION  8.00E+03  2212 2212 2 1000004 2000002   # Nevts: 10000 xsec unit: pb
  0  2  0  0  0  0    4.99270945E-03 SModelS 1.0.90

XSECTION  8.00E+03  2212 2212 2 -1000004 1000002   # Nevts: 10000 xsec unit: pb
  0  2  0  0  0  0    1.99757000E-03 SModelS 1.0.90

XSECTION  8.00E+03  2212 2212 2 -1000002 1000001   # Nevts: 10000 xsec unit: pb
  0  2  0  0  0  0    4.66099667E-03 SModelS 1.0.90

XSECTION  8.00E+03  2212 2212 2 -2000002 1000003   # Nevts: 10000 xsec unit: pb
  0  2  0  0  0  0    1.33171334E-03 SModelS 1.0.90

XSECTION  8.00E+03  2212 2212 2 1000003 2000001   # Nevts: 10000 xsec unit: pb
  0  2  0  0  0  0    3.88321846E-03 SModelS 1.0.90

XSECTION  8.00E+03  2212 2212 2 -1000001 1000021   # Nevts: 10000 xsec unit: pb
  0  2  0  0  0  0    5.44066576E-02 SModelS 1.0.90

XSECTION  8.00E+03  2212 2212 2 1000001 1000001   # Nevts: 10000 xsec unit: pb
  0  2  0  0  0  0    3.49489661E-02 SModelS 1.0.90

XSECTION  8.00E+03  2212 2212 2 -1000002 1000002   # Nevts: 10000 xsec unit: pb
  0  2  0  0  0  0    3.59562601E-02 SModelS 1.0.90

XSECTION  8.00E+03  2212 2212 2 2000001 2000004   # Nevts: 10000 xsec unit: pb
  0  2  0  0  0  0    3.88321846E-03 SModelS 1.0.90

XSECTION  8.00E+03  2212 2212 2 -2000003 2000001   # Nevts: 10000 xsec unit: pb
  0  2  0  0  0  0    3.99514001E-03 SModelS 1.0.90

XSECTION  8.00E+03  2212 2212 2 2000002 2000003   # Nevts: 10000 xsec unit: pb
  0  2  0  0  0  0    2.44088017E-02 SModelS 1.0.90

XSECTION  8.00E+03  2212 2212 2 -1000001 1000002   # Nevts: 10000 xsec unit: pb
  0  2  0  0  0  0    1.39829900E-02 SModelS 1.0.90

XSECTION  8.00E+03  2212 2212 2 -2000002 1000004   # Nevts: 10000 xsec unit: pb
  0  2  0  0  0  0    6.65856668E-04 SModelS 1.0.90

XSECTION  8.00E+03  2212 2212 2 1000001 2000002   # Nevts: 10000 xsec unit: pb
  0  2  0  0  0  0    9.48614795E-02 SModelS 1.0.90

XSECTION  8.00E+03  2212 2212 2 1000002 1000021   # Nevts: 10000 xsec unit: pb
  0  2  0  0  0  0    1.13205178E+00 SModelS 1.0.90

XSECTION  8.00E+03  2212 2212 2 -2000003 1000001   # Nevts: 10000 xsec unit: pb
  0  2  0  0  0  0    1.59805600E-02 SModelS 1.0.90

XSECTION  8.00E+03  2212 2212 2 -2000004 2000001   # Nevts: 10000 xsec unit: pb
  0  2  0  0  0  0    5.32685334E-03 SModelS 1.0.90

XSECTION  8.00E+03  2212 2212 2 1000002 2000002   # Nevts: 10000 xsec unit: pb
  0  2  0  0  0  0    1.85284995E-01 SModelS 1.0.90

XSECTION  8.00E+03  2212 2212 2 -2000001 1000021   # Nevts: 10000 xsec unit: pb
  0  2  0  0  0  0    6.29281823E-02 SModelS 1.0.90

XSECTION  8.00E+03  2212 2212 2 2000002 2000004   # Nevts: 10000 xsec unit: pb
  0  2  0  0  0  0    1.38686374E-02 SModelS 1.0.90

XSECTION  8.00E+03  2212 2212 2 -1000003 1000001   # Nevts: 10000 xsec unit: pb
  0  2  0  0  0  0    5.32685334E-03 SModelS 1.0.90

XSECTION  8.00E+03  2212 2212 2 -1000001 1000001   # Nevts: 10000 xsec unit: pb
  0  2  0  0  0  0    2.13074134E-02 SModelS 1.0.90

XSECTION  8.00E+03  2212 2212 2 1000001 1000021   # Nevts: 10000 xsec unit: pb
  0  2  0  0  0  0    4.39841774E-01 SModelS 1.0.90

XSECTION  8.00E+03  2212 2212 2 1000021 1000021   # Nevts: 10000 xsec unit: pb
  0  2  0  0  0  0    9.67377997E-01 SModelS 1.0.90

XSECTION  8.00E+03  2212 2212 2 -2000004 1000021   # Nevts: 10000 xsec unit: pb
  0  2  0  0  0  0    1.04880304E-02 SModelS 1.0.90

XSECTION  8.00E+03  2212 2212 2 -1000003 2000001   # Nevts: 10000 xsec unit: pb
  0  2  0  0  0  0    1.06537067E-02 SModelS 1.0.90

XSECTION  8.00E+03  2212 2212 2 -2000001 1000002   # Nevts: 10000 xsec unit: pb
  0  2  0  0  0  0    4.99392501E-02 SModelS 1.0.90

XSECTION  8.00E+03  2212 2212 2 2000001 2000002   # Nevts: 10000 xsec unit: pb
  0  2  0  0  0  0    2.32438362E-01 SModelS 1.0.90

XSECTION  8.00E+03  2212 2212 2 -1000002 2000004   # Nevts: 10000 xsec unit: pb
  0  2  0  0  0  0    1.33171334E-03 SModelS 1.0.90

XSECTION  8.00E+03  2212 2212 2 1000021 2000003   # Nevts: 10000 xsec unit: pb
  0  2  0  0  0  0    2.62200759E-02 SModelS 1.0.90

XSECTION  8.00E+03  2212 2212 2 -1000003 2000002   # Nevts: 10000 xsec unit: pb
  0  2  0  0  0  0    3.99514001E-02 SModelS 1.0.90

XSECTION  8.00E+03  2212 2212 2 -2000003 1000004   # Nevts: 10000 xsec unit: pb
  0  2  0  0  0  0    6.65856668E-04 SModelS 1.0.90

XSECTION  8.00E+03  2212 2212 2 -2000001 1000001   # Nevts: 10000 xsec unit: pb
  0  2  0  0  0  0    2.59684100E-02 SModelS 1.0.90

XSECTION  8.00E+03  2212 2212 2 -1000002 1000021   # Nevts: 10000 xsec unit: pb
  0  2  0  0  0  0    4.19521215E-02 SModelS 1.0.90

XSECTION  8.00E+03  2212 2212 2 1000004 1000021   # Nevts: 10000 xsec unit: pb
  0  2  0  0  0  0    6.55501899E-03 SModelS 1.0.90

XSECTION  8.00E+03  2212 2212 2 1000002 2000001   # Nevts: 10000 xsec unit: pb
  0  2  0  0  0  0    8.82045336E-02 SModelS 1.0.90

XSECTION  8.00E+03  2212 2212 2 -1000001 2000003   # Nevts: 10000 xsec unit: pb
  0  2  0  0  0  0    1.33171334E-03 SModelS 1.0.90

XSECTION  8.00E+03  2212 2212 2 -1000002 2000001   # Nevts: 10000 xsec unit: pb
  0  2  0  0  0  0    1.86439867E-02 SModelS 1.0.90

XSECTION  8.00E+03  2212 2212 2 -1000004 1000004   # Nevts: 10000 xsec unit: pb
  0  2  0  0  0  0    2.19732700E-02 SModelS 1.0.90

XSECTION  8.00E+03  2212 2212 2 -1000004 2000002   # Nevts: 10000 xsec unit: pb
  0  2  0  0  0  0    1.73122734E-02 SModelS 1.0.90

XSECTION  8.00E+03  2212 2212 2 -2000001 1000004   # Nevts: 10000 xsec unit: pb
  0  2  0  0  0  0    1.33171334E-03 SModelS 1.0.90

XSECTION  8.00E+03  2212 2212 2 -1000004 2000003   # Nevts: 10000 xsec unit: pb
  0  2  0  0  0  0    1.33171334E-03 SModelS 1.0.90

XSECTION  8.00E+03  2212 2212 2 -2000003 2000003   # Nevts: 10000 xsec unit: pb
  0  2  0  0  0  0    1.93098434E-02 SModelS 1.0.90

XSECTION  8.00E+03  2212 2212 2 1000001 2000001   # Nevts: 10000 xsec unit: pb
  0  2  0  0  0  0    3.43942206E-02 SModelS 1.0.90
